simulation/modelsim/msim_transcript
# Reading D:/Quartus/modelsim_ase/tcl/vsim/pref.tcl 
# do nRisc_Simula_run_msim_rtl_verilog.do 
# if {[file exists rtl_work]} {
# 	vdel -lib rtl_work -all
# }
# vlib rtl_work
# vmap work rtl_work
# Copying D:\Quartus\modelsim_ase\win32aloem/../modelsim.ini to modelsim.ini
# Modifying modelsim.ini
# ** Warning: Copied D:\Quartus\modelsim_ase\win32aloem/../modelsim.ini to modelsim.ini.
#          Updated modelsim.ini.
# 
# vlog -vlog01compat -work work +incdir+C:/Users/vitor/Documents/CEFET/Periodo_3/LAOC\ I/Aula\ 13/nRISC/Processador-nRISC {C:/Users/vitor/Documents/CEFET/Periodo_3/LAOC I/Aula 13/nRISC/Processador-nRISC/Banco_Registradores.v}
# Model Technology ModelSim ALTERA vlog 10.1d Compiler 2012.11 Nov  2 2012
# -- Compiling module Banco_Registradores
# 
# Top level modules:
# 	Banco_Registradores
# vlog -vlog01compat -work work +incdir+C:/Users/vitor/Documents/CEFET/Periodo_3/LAOC\ I/Aula\ 13/nRISC/Processador-nRISC {C:/Users/vitor/Documents/CEFET/Periodo_3/LAOC I/Aula 13/nRISC/Processador-nRISC/Memoria_Dados.v}
# Model Technology ModelSim ALTERA vlog 10.1d Compiler 2012.11 Nov  2 2012
# -- Compiling module Memoria_Dados
# 
# Top level modules:
# 	Memoria_Dados
# vlog -vlog01compat -work work +incdir+C:/Users/vitor/Documents/CEFET/Periodo_3/LAOC\ I/Aula\ 13/nRISC/Processador-nRISC {C:/Users/vitor/Documents/CEFET/Periodo_3/LAOC I/Aula 13/nRISC/Processador-nRISC/PC.v}
# Model Technology ModelSim ALTERA vlog 10.1d Compiler 2012.11 Nov  2 2012
# -- Compiling module PC
# 
# Top level modules:
# 	PC
# vlog -vlog01compat -work work +incdir+C:/Users/vitor/Documents/CEFET/Periodo_3/LAOC\ I/Aula\ 13/nRISC/Processador-nRISC {C:/Users/vitor/Documents/CEFET/Periodo_3/LAOC I/Aula 13/nRISC/Processador-nRISC/Memoria_Instrucao.v}
# Model Technology ModelSim ALTERA vlog 10.1d Compiler 2012.11 Nov  2 2012
# -- Compiling module Memoria_Instrucao
# 
# Top level modules:
# 	Memoria_Instrucao
# vlog -vlog01compat -work work +incdir+C:/Users/vitor/Documents/CEFET/Periodo_3/LAOC\ I/Aula\ 13/nRISC/Processador-nRISC {C:/Users/vitor/Documents/CEFET/Periodo_3/LAOC I/Aula 13/nRISC/Processador-nRISC/Registrador_COND.v}
# Model Technology ModelSim ALTERA vlog 10.1d Compiler 2012.11 Nov  2 2012
# -- Compiling module Registrador_COND
# 
# Top level modules:
# 	Registrador_COND
# vlog -vlog01compat -work work +incdir+C:/Users/vitor/Documents/CEFET/Periodo_3/LAOC\ I/Aula\ 13/nRISC/Processador-nRISC {C:/Users/vitor/Documents/CEFET/Periodo_3/LAOC I/Aula 13/nRISC/Processador-nRISC/ULA.v}
# Model Technology ModelSim ALTERA vlog 10.1d Compiler 2012.11 Nov  2 2012
# -- Compiling module ULA
# 
# Top level modules:
# 	ULA
# vlog -vlog01compat -work work +incdir+C:/Users/vitor/Documents/CEFET/Periodo_3/LAOC\ I/Aula\ 13/nRISC/Processador-nRISC {C:/Users/vitor/Documents/CEFET/Periodo_3/LAOC I/Aula 13/nRISC/Processador-nRISC/MUX.v}
# Model Technology ModelSim ALTERA vlog 10.1d Compiler 2012.11 Nov  2 2012
# -- Compiling module MUX
# 
# Top level modules:
# 	MUX
# vlog -vlog01compat -work work +incdir+C:/Users/vitor/Documents/CEFET/Periodo_3/LAOC\ I/Aula\ 13/nRISC/Processador-nRISC {C:/Users/vitor/Documents/CEFET/Periodo_3/LAOC I/Aula 13/nRISC/Processador-nRISC/Extensor_Sinal_3b8.v}
# Model Technology ModelSim ALTERA vlog 10.1d Compiler 2012.11 Nov  2 2012
# -- Compiling module Extensor_Sinal_3b8
# 
# Top level modules:
# 	Extensor_Sinal_3b8
# vlog -vlog01compat -work work +incdir+C:/Users/vitor/Documents/CEFET/Periodo_3/LAOC\ I/Aula\ 13/nRISC/Processador-nRISC {C:/Users/vitor/Documents/CEFET/Periodo_3/LAOC I/Aula 13/nRISC/Processador-nRISC/Extensor_Sinal_5b8.v}
# Model Technology ModelSim ALTERA vlog 10.1d Compiler 2012.11 Nov  2 2012
# -- Compiling module Extensor_Sinal_5b8
# 
# Top level modules:
# 	Extensor_Sinal_5b8
# vlog -vlog01compat -work work +incdir+C:/Users/vitor/Documents/CEFET/Periodo_3/LAOC\ I/Aula\ 13/nRISC/Processador-nRISC {C:/Users/vitor/Documents/CEFET/Periodo_3/LAOC I/Aula 13/nRISC/Processador-nRISC/Somador.v}
# Model Technology ModelSim ALTERA vlog 10.1d Compiler 2012.11 Nov  2 2012
# -- Compiling module Somador
# 
# Top level modules:
# 	Somador
# vlog -vlog01compat -work work +incdir+C:/Users/vitor/Documents/CEFET/Periodo_3/LAOC\ I/Aula\ 13/nRISC/Processador-nRISC {C:/Users/vitor/Documents/CEFET/Periodo_3/LAOC I/Aula 13/nRISC/Processador-nRISC/Porta_AND.v}
# Model Technology ModelSim ALTERA vlog 10.1d Compiler 2012.11 Nov  2 2012
# -- Compiling module Porta_AND
# 
# Top level modules:
# 	Porta_AND
# vlog -vlog01compat -work work +incdir+C:/Users/vitor/Documents/CEFET/Periodo_3/LAOC\ I/Aula\ 13/nRISC/Processador-nRISC {C:/Users/vitor/Documents/CEFET/Periodo_3/LAOC I/Aula 13/nRISC/Processador-nRISC/nRisc.v}
# Model Technology ModelSim ALTERA vlog 10.1d Compiler 2012.11 Nov  2 2012
# -- Compiling module nRisc
# 
# Top level modules:
# 	nRisc
# vlog -vlog01compat -work work +incdir+C:/Users/vitor/Documents/CEFET/Periodo_3/LAOC\ I/Aula\ 13/nRISC/Processador-nRISC {C:/Users/vitor/Documents/CEFET/Periodo_3/LAOC I/Aula 13/nRISC/Processador-nRISC/unidade_controle.v}
# Model Technology ModelSim ALTERA vlog 10.1d Compiler 2012.11 Nov  2 2012
# -- Compiling module Unidade_Controle
# 
# Top level modules:
# 	Unidade_Controle
# vlog -vlog01compat -work work +incdir+C:/Users/vitor/Documents/CEFET/Periodo_3/LAOC\ I/Aula\ 13/nRISC/Processador-nRISC {C:/Users/vitor/Documents/CEFET/Periodo_3/LAOC I/Aula 13/nRISC/Processador-nRISC/ula_controle.v}
# Model Technology ModelSim ALTERA vlog 10.1d Compiler 2012.11 Nov  2 2012
# -- Compiling module ULA_Controle
# 
# Top level modules:
# 	ULA_Controle
# 
# vlog -vlog01compat -work work +incdir+C:/Users/vitor/Documents/CEFET/Periodo_3/LAOC\ I/Aula\ 13/nRISC/Processador-nRISC {C:/Users/vitor/Documents/CEFET/Periodo_3/LAOC I/Aula 13/nRISC/Processador-nRISC/nRisc_Simula.v}
# Model Technology ModelSim ALTERA vlog 10.1d Compiler 2012.11 Nov  2 2012
# -- Compiling module nRisc_Simula
# 
# Top level modules:
# 	nRisc_Simula
# 
# vsim -t 1ps -L altera_ver -L lpm_ver -L sgate_ver -L altera_mf_ver -L altera_lnsim_ver -L cycloneii_ver -L rtl_work -L work -voptargs="+acc"  nRisc_Simula
# vsim -L altera_ver -L lpm_ver -L sgate_ver -L altera_mf_ver -L altera_lnsim_ver -L cycloneii_ver -L rtl_work -L work -voptargs=\"+acc\" -t 1ps nRisc_Simula 
# Loading work.nRisc_Simula
# Loading work.nRisc
# Loading work.PC
# Loading work.Somador
# Loading work.Memoria_Instrucao
# Loading work.Unidade_Controle
# Loading work.Banco_Registradores
# Loading work.Extensor_Sinal_5b8
# Loading work.Extensor_Sinal_3b8
# Loading work.MUX
# Loading work.ULA_Controle
# Loading work.ULA
# Loading work.Registrador_COND
# Loading work.Porta_AND
# Loading work.Memoria_Dados
# 
# add wave *
# view structure
# .main_pane.structure.interior.cs.body.struct
# view signals
# .main_pane.objects.interior.cs.body.tree
# run -all
# Memoria:   5,    8,   -1,    1,   10
# 
# Tempo = 5 | Clock = 1  Reset = 0
# PC =   0 | Instrucao = 10001000
# Decodificacao da instrucao: Opcode = 100 Funct = 0 R1 = 1 R2 = 0 Imm3 = 0 Target =  8
# Unidade de Controle: RegDst = 1 RegWrite = 1 MemRead = 0 MemWrite = 0 Branch = 0 Jump = 0 ULASrc = 1 Halt = 0 ULAOP = 10 
# Unidade de Controle ULA: ULAControl = 00
# ULA: d1 =00000000 d2 =00000000 | Resultado = 00000000 | COND = 0
# Memoria de Dados (Interna): Endereco =   x | DadoEscrito = xxxxxxxx | DadoLido = 00000000
# Saida do MUX RegDst: 00000000
# Valores da Memoria de Dados: Mem0 = 00000101(  5)| Mem1 = 00001000(  8) | Mem2 = 11111111( -1) | Mem3 = 00000001(  1) | Mem4 = 00001010( 10)
# Banco Registradores: R0 = xxxxxxxx | R1 = 00000000 | R2 = xxxxxxxx | R3 = xxxxxxxx
# Novo PC:   1
# 
# Tempo = 15 | Clock = 1  Reset = 0
# PC =   1 | Instrucao = 10010001
# Decodificacao da instrucao: Opcode = 100 Funct = 1 R1 = 2 R2 = 0 Imm3 = 1 Target = 17
# Unidade de Controle: RegDst = 1 RegWrite = 1 MemRead = 0 MemWrite = 0 Branch = 0 Jump = 0 ULASrc = 1 Halt = 0 ULAOP = 10 
# Unidade de Controle ULA: ULAControl = 00
# ULA: d1 =00000000 d2 =00000001 | Resultado = 00000001 | COND = 0
# Memoria de Dados (Interna): Endereco =   x | DadoEscrito = xxxxxxxx | DadoLido = 00000000
# Saida do MUX RegDst: 00000001
# Valores da Memoria de Dados: Mem0 = 00000101(  5)| Mem1 = 00001000(  8) | Mem2 = 11111111( -1) | Mem3 = 00000001(  1) | Mem4 = 00001010( 10)
# Banco Registradores: R0 = xxxxxxxx | R1 = 00000000 | R2 = 00000001 | R3 = xxxxxxxx
# Novo PC:   2
# 
# Tempo = 25 | Clock = 1  Reset = 0
# PC =   2 | Instrucao = 10011101
# Decodificacao da instrucao: Opcode = 100 Funct = 1 R1 = 3 R2 = 2 Imm3 = 5 Target = 29
# Unidade de Controle: RegDst = 1 RegWrite = 1 MemRead = 0 MemWrite = 0 Branch = 0 Jump = 0 ULASrc = 1 Halt = 0 ULAOP = 10 
# Unidade de Controle ULA: ULAControl = 00
# ULA: d1 =00000000 d2 =00000101 | Resultado = 00000101 | COND = 0
# Memoria de Dados (Interna): Endereco =   1 | DadoEscrito = xxxxxxxx | DadoLido = 00000000
# Saida do MUX RegDst: 00000101
# Valores da Memoria de Dados: Mem0 = 00000101(  5)| Mem1 = 00001000(  8) | Mem2 = 11111111( -1) | Mem3 = 00000001(  1) | Mem4 = 00001010( 10)
# Banco Registradores: R0 = xxxxxxxx | R1 = 00000000 | R2 = 00000001 | R3 = 00000101
# Novo PC:   3
# 
# Tempo = 35 | Clock = 1  Reset = 0
# PC =   3 | Instrucao = 01000010
# Decodificacao da instrucao: Opcode = 010 Funct = 0 R1 = 0 R2 = 1 Imm3 = 2 Target =  2
# Unidade de Controle: RegDst = 0 RegWrite = 1 MemRead = 1 MemWrite = 0 Branch = 0 Jump = 0 ULASrc = 0 Halt = 0 ULAOP = 11 
# Unidade de Controle ULA: ULAControl = 00
# ULA: d1 =xxxxxxxx d2 =00000000 | Resultado = xxxxxxxx | COND = 0
# Memoria de Dados (Interna): Endereco =   0 | DadoEscrito = xxxxxxxx | DadoLido = 00000101
# Saida do MUX RegDst: 00000101
# Valores da Memoria de Dados: Mem0 = 00000101(  5)| Mem1 = 00001000(  8) | Mem2 = 11111111( -1) | Mem3 = 00000001(  1) | Mem4 = 00001010( 10)
# Banco Registradores: R0 = 00000101 | R1 = 00000000 | R2 = 00000001 | R3 = 00000101
# Novo PC:   4
# 
# Tempo = 45 | Clock = 1  Reset = 0
# PC =   4 | Instrucao = 10100001
# Decodificacao da instrucao: Opcode = 101 Funct = 1 R1 = 0 R2 = 0 Imm3 = 1 Target =  1
# Unidade de Controle: RegDst = 1 RegWrite = 1 MemRead = 0 MemWrite = 0 Branch = 0 Jump = 0 ULASrc = 0 Halt = 0 ULAOP = 01 
# Unidade de Controle ULA: ULAControl = 11
# ULA: d1 =00000101 d2 =00000101 | Resultado = 11111010 | COND = 0
# Memoria de Dados (Interna): Endereco =   5 | DadoEscrito = 00000101 | DadoLido = 00000101
# Saida do MUX RegDst: 11111010
# Valores da Memoria de Dados: Mem0 = 00000101(  5)| Mem1 = 00001000(  8) | Mem2 = 11111111( -1) | Mem3 = 00000001(  1) | Mem4 = 00001010( 10)
# Banco Registradores: R0 = 11111010 | R1 = 00000000 | R2 = 00000001 | R3 = 00000101
# Novo PC:   5
# 
# Tempo = 55 | Clock = 1  Reset = 0
# PC =   5 | Instrucao = 00100100
# Decodificacao da instrucao: Opcode = 001 Funct = 0 R1 = 0 R2 = 2 Imm3 = 4 Target =  4
# Unidade de Controle: RegDst = 1 RegWrite = 1 MemRead = 0 MemWrite = 0 Branch = 0 Jump = 0 ULASrc = 0 Halt = 0 ULAOP = 00 
# Unidade de Controle ULA: ULAControl = 00
# ULA: d1 =11111010 d2 =00000001 | Resultado = 11111011 | COND = 0
# Memoria de Dados (Interna): Endereco =   1 | DadoEscrito = 11111010 | DadoLido = 00000101
# Saida do MUX RegDst: 11111011
# Valores da Memoria de Dados: Mem0 = 00000101(  5)| Mem1 = 00001000(  8) | Mem2 = 11111111( -1) | Mem3 = 00000001(  1) | Mem4 = 00001010( 10)
# Banco Registradores: R0 = 11111011 | R1 = 00000000 | R2 = 00000001 | R3 = 00000101
# Novo PC:   6
# 
# Tempo = 65 | Clock = 1  Reset = 0
# PC =   6 | Instrucao = 01000011
# Decodificacao da instrucao: Opcode = 010 Funct = 1 R1 = 0 R2 = 1 Imm3 = 3 Target =  3
# Unidade de Controle: RegDst = 0 RegWrite = 0 MemRead = 0 MemWrite = 1 Branch = 0 Jump = 0 ULASrc = 0 Halt = 0 ULAOP = 11 
# Unidade de Controle ULA: ULAControl = 00
# ULA: d1 =11111011 d2 =00000000 | Resultado = 11111011 | COND = 0
# Memoria de Dados (Interna): Endereco =   0 | DadoEscrito = 11111011 | DadoLido = 00000101
# Saida do MUX RegDst: 00000101
# Valores da Memoria de Dados: Mem0 = 11111011( -5)| Mem1 = 00001000(  8) | Mem2 = 11111111( -1) | Mem3 = 00000001(  1) | Mem4 = 00001010( 10)
# Banco Registradores: R0 = 11111011 | R1 = 00000000 | R2 = 00000001 | R3 = 00000101
# Novo PC:   7
# 
# Tempo = 75 | Clock = 1  Reset = 0
# PC =   7 | Instrucao = 00101100
# Decodificacao da instrucao: Opcode = 001 Funct = 0 R1 = 1 R2 = 2 Imm3 = 4 Target = 12
# Unidade de Controle: RegDst = 1 RegWrite = 1 MemRead = 0 MemWrite = 0 Branch = 0 Jump = 0 ULASrc = 0 Halt = 0 ULAOP = 00 
# Unidade de Controle ULA: ULAControl = 00
# ULA: d1 =00000000 d2 =00000001 | Resultado = 00000001 | COND = 0
# Memoria de Dados (Interna): Endereco =   1 | DadoEscrito = 00000000 | DadoLido = 00000101
# Saida do MUX RegDst: 00000001
# Valores da Memoria de Dados: Mem0 = 11111011( -5)| Mem1 = 00001000(  8) | Mem2 = 11111111( -1) | Mem3 = 00000001(  1) | Mem4 = 00001010( 10)
# Banco Registradores: R0 = 11111011 | R1 = 00000001 | R2 = 00000001 | R3 = 00000101
# Novo PC:   8
# 
# Tempo = 85 | Clock = 1  Reset = 0
# PC =   8 | Instrucao = 10101110
# Decodificacao da instrucao: Opcode = 101 Funct = 0 R1 = 1 R2 = 3 Imm3 = 6 Target = 14
# Unidade de Controle: RegDst = 0 RegWrite = 0 MemRead = 0 MemWrite = 0 Branch = 0 Jump = 0 ULASrc = 0 Halt = 0 ULAOP = 01 
# Unidade de Controle ULA: ULAControl = 10
# ULA: d1 =00000001 d2 =00000101 | Resultado = 00000000 | COND = 1
# Memoria de Dados (Interna): Endereco =   5 | DadoEscrito = 00000001 | DadoLido = 00000101
# Saida do MUX RegDst: 00000101
# Valores da Memoria de Dados: Mem0 = 11111011( -5)| Mem1 = 00001000(  8) | Mem2 = 11111111( -1) | Mem3 = 00000001(  1) | Mem4 = 00001010( 10)
# Banco Registradores: R0 = 11111011 | R1 = 00000001 | R2 = 00000001 | R3 = 00000101
# Novo PC:   9
# 
# Tempo = 95 | Clock = 1  Reset = 0
# PC =   9 | Instrucao = 11100011
# Decodificacao da instrucao: Opcode = 111 Funct = 1 R1 = 0 R2 = 1 Imm3 = 3 Target =  3
# Unidade de Controle: RegDst = 0 RegWrite = 0 MemRead = 0 MemWrite = 0 Branch = 1 Jump = 0 ULASrc = 0 Halt = 0 ULAOP = 11 
# Unidade de Controle ULA: ULAControl = 00
# ULA: d1 =11111011 d2 =00000001 | Resultado = 11111100 | COND = 0
# Memoria de Dados (Interna): Endereco =   1 | DadoEscrito = 11111011 | DadoLido = 00000101
# Saida do MUX RegDst: 00000101
# Valores da Memoria de Dados: Mem0 = 11111011( -5)| Mem1 = 00001000(  8) | Mem2 = 11111111( -1) | Mem3 = 00000001(  1) | Mem4 = 00001010( 10)
# Banco Registradores: R0 = 11111011 | R1 = 00000001 | R2 = 00000001 | R3 = 00000101
# Novo PC:   3
# 
# Tempo = 105 | Clock = 1  Reset = 0
# PC =   3 | Instrucao = 01000010
# Decodificacao da instrucao: Opcode = 010 Funct = 0 R1 = 0 R2 = 1 Imm3 = 2 Target =  2
# Unidade de Controle: RegDst = 0 RegWrite = 1 MemRead = 1 MemWrite = 0 Branch = 0 Jump = 0 ULASrc = 0 Halt = 0 ULAOP = 11 
# Unidade de Controle ULA: ULAControl = 00
# ULA: d1 =11111011 d2 =00000001 | Resultado = 11111100 | COND = 0
# Memoria de Dados (Interna): Endereco =   1 | DadoEscrito = 11111011 | DadoLido = 00001000
# Saida do MUX RegDst: 00001000
# Valores da Memoria de Dados: Mem0 = 11111011( -5)| Mem1 = 00001000(  8) | Mem2 = 11111111( -1) | Mem3 = 00000001(  1) | Mem4 = 00001010( 10)
# Banco Registradores: R0 = 00001000 | R1 = 00000001 | R2 = 00000001 | R3 = 00000101
# Novo PC:   4
# 
# Tempo = 115 | Clock = 1  Reset = 0
# PC =   4 | Instrucao = 10100001
# Decodificacao da instrucao: Opcode = 101 Funct = 1 R1 = 0 R2 = 0 Imm3 = 1 Target =  1
# Unidade de Controle: RegDst = 1 RegWrite = 1 MemRead = 0 MemWrite = 0 Branch = 0 Jump = 0 ULASrc = 0 Halt = 0 ULAOP = 01 
# Unidade de Controle ULA: ULAControl = 11
# ULA: d1 =00001000 d2 =00001000 | Resultado = 11110111 | COND = 0
# Memoria de Dados (Interna): Endereco =   8 | DadoEscrito = 00001000 | DadoLido = 00001000
# Saida do MUX RegDst: 11110111
# Valores da Memoria de Dados: Mem0 = 11111011( -5)| Mem1 = 00001000(  8) | Mem2 = 11111111( -1) | Mem3 = 00000001(  1) | Mem4 = 00001010( 10)
# Banco Registradores: R0 = 11110111 | R1 = 00000001 | R2 = 00000001 | R3 = 00000101
# Novo PC:   5
# 
# Tempo = 125 | Clock = 1  Reset = 0
# PC =   5 | Instrucao = 00100100
# Decodificacao da instrucao: Opcode = 001 Funct = 0 R1 = 0 R2 = 2 Imm3 = 4 Target =  4
# Unidade de Controle: RegDst = 1 RegWrite = 1 MemRead = 0 MemWrite = 0 Branch = 0 Jump = 0 ULASrc = 0 Halt = 0 ULAOP = 00 
# Unidade de Controle ULA: ULAControl = 00
# ULA: d1 =11110111 d2 =00000001 | Resultado = 11111000 | COND = 0
# Memoria de Dados (Interna): Endereco =   1 | DadoEscrito = 11110111 | DadoLido = 00001000
# Saida do MUX RegDst: 11111000
# Valores da Memoria de Dados: Mem0 = 11111011( -5)| Mem1 = 00001000(  8) | Mem2 = 11111111( -1) | Mem3 = 00000001(  1) | Mem4 = 00001010( 10)
# Banco Registradores: R0 = 11111000 | R1 = 00000001 | R2 = 00000001 | R3 = 00000101
# Novo PC:   6
# 
# Tempo = 135 | Clock = 1  Reset = 0
# PC =   6 | Instrucao = 01000011
# Decodificacao da instrucao: Opcode = 010 Funct = 1 R1 = 0 R2 = 1 Imm3 = 3 Target =  3
# Unidade de Controle: RegDst = 0 RegWrite = 0 MemRead = 0 MemWrite = 1 Branch = 0 Jump = 0 ULASrc = 0 Halt = 0 ULAOP = 11 
# Unidade de Controle ULA: ULAControl = 00
# ULA: d1 =11111000 d2 =00000001 | Resultado = 11111001 | COND = 0
# Memoria de Dados (Interna): Endereco =   1 | DadoEscrito = 11111000 | DadoLido = 00001000
# Saida do MUX RegDst: 00001000
# Valores da Memoria de Dados: Mem0 = 11111011( -5)| Mem1 = 11111000( -8) | Mem2 = 11111111( -1) | Mem3 = 00000001(  1) | Mem4 = 00001010( 10)
# Banco Registradores: R0 = 11111000 | R1 = 00000001 | R2 = 00000001 | R3 = 00000101
# Novo PC:   7
# 
# Tempo = 145 | Clock = 1  Reset = 0
# PC =   7 | Instrucao = 00101100
# Decodificacao da instrucao: Opcode = 001 Funct = 0 R1 = 1 R2 = 2 Imm3 = 4 Target = 12
# Unidade de Controle: RegDst = 1 RegWrite = 1 MemRead = 0 MemWrite = 0 Branch = 0 Jump = 0 ULASrc = 0 Halt = 0 ULAOP = 00 
# Unidade de Controle ULA: ULAControl = 00
# ULA: d1 =00000001 d2 =00000001 | Resultado = 00000010 | COND = 0
# Memoria de Dados (Interna): Endereco =   1 | DadoEscrito = 00000001 | DadoLido = 00001000
# Saida do MUX RegDst: 00000010
# Valores da Memoria de Dados: Mem0 = 11111011( -5)| Mem1 = 11111000( -8) | Mem2 = 11111111( -1) | Mem3 = 00000001(  1) | Mem4 = 00001010( 10)
# Banco Registradores: R0 = 11111000 | R1 = 00000010 | R2 = 00000001 | R3 = 00000101
# Novo PC:   8
# 
# Tempo = 155 | Clock = 1  Reset = 0
# PC =   8 | Instrucao = 10101110
# Decodificacao da instrucao: Opcode = 101 Funct = 0 R1 = 1 R2 = 3 Imm3 = 6 Target = 14
# Unidade de Controle: RegDst = 0 RegWrite = 0 MemRead = 0 MemWrite = 0 Branch = 0 Jump = 0 ULASrc = 0 Halt = 0 ULAOP = 01 
# Unidade de Controle ULA: ULAControl = 10
# ULA: d1 =00000010 d2 =00000101 | Resultado = 00000000 | COND = 1
# Memoria de Dados (Interna): Endereco =   5 | DadoEscrito = 00000010 | DadoLido = 00001000
# Saida do MUX RegDst: 00001000
# Valores da Memoria de Dados: Mem0 = 11111011( -5)| Mem1 = 11111000( -8) | Mem2 = 11111111( -1) | Mem3 = 00000001(  1) | Mem4 = 00001010( 10)
# Banco Registradores: R0 = 11111000 | R1 = 00000010 | R2 = 00000001 | R3 = 00000101
# Novo PC:   9
# 
# Tempo = 165 | Clock = 1  Reset = 0
# PC =   9 | Instrucao = 11100011
# Decodificacao da instrucao: Opcode = 111 Funct = 1 R1 = 0 R2 = 1 Imm3 = 3 Target =  3
# Unidade de Controle: RegDst = 0 RegWrite = 0 MemRead = 0 MemWrite = 0 Branch = 1 Jump = 0 ULASrc = 0 Halt = 0 ULAOP = 11 
# Unidade de Controle ULA: ULAControl = 00
# ULA: d1 =11111000 d2 =00000010 | Resultado = 11111010 | COND = 0
# Memoria de Dados (Interna): Endereco =   2 | DadoEscrito = 11111000 | DadoLido = 00001000
# Saida do MUX RegDst: 00001000
# Valores da Memoria de Dados: Mem0 = 11111011( -5)| Mem1 = 11111000( -8) | Mem2 = 11111111( -1) | Mem3 = 00000001(  1) | Mem4 = 00001010( 10)
# Banco Registradores: R0 = 11111000 | R1 = 00000010 | R2 = 00000001 | R3 = 00000101
# Novo PC:   3
# 
# Tempo = 175 | Clock = 1  Reset = 0
# PC =   3 | Instrucao = 01000010
# Decodificacao da instrucao: Opcode = 010 Funct = 0 R1 = 0 R2 = 1 Imm3 = 2 Target =  2
# Unidade de Controle: RegDst = 0 RegWrite = 1 MemRead = 1 MemWrite = 0 Branch = 0 Jump = 0 ULASrc = 0 Halt = 0 ULAOP = 11 
# Unidade de Controle ULA: ULAControl = 00
# ULA: d1 =11111000 d2 =00000010 | Resultado = 11111010 | COND = 0
# Memoria de Dados (Interna): Endereco =   2 | DadoEscrito = 11111000 | DadoLido = 11111111
# Saida do MUX RegDst: 11111111
# Valores da Memoria de Dados: Mem0 = 11111011( -5)| Mem1 = 11111000( -8) | Mem2 = 11111111( -1) | Mem3 = 00000001(  1) | Mem4 = 00001010( 10)
# Banco Registradores: R0 = 11111111 | R1 = 00000010 | R2 = 00000001 | R3 = 00000101
# Novo PC:   4
# 
# Tempo = 185 | Clock = 1  Reset = 0
# PC =   4 | Instrucao = 10100001
# Decodificacao da instrucao: Opcode = 101 Funct = 1 R1 = 0 R2 = 0 Imm3 = 1 Target =  1
# Unidade de Controle: RegDst = 1 RegWrite = 1 MemRead = 0 MemWrite = 0 Branch = 0 Jump = 0 ULASrc = 0 Halt = 0 ULAOP = 01 
# Unidade de Controle ULA: ULAControl = 11
# ULA: d1 =11111111 d2 =11111111 | Resultado = 00000000 | COND = 0
# Memoria de Dados (Interna): Endereco = 255 | DadoEscrito = 11111111 | DadoLido = 11111111
# Saida do MUX RegDst: 00000000
# Valores da Memoria de Dados: Mem0 = 11111011( -5)| Mem1 = 11111000( -8) | Mem2 = 11111111( -1) | Mem3 = 00000001(  1) | Mem4 = 00001010( 10)
# Banco Registradores: R0 = 00000000 | R1 = 00000010 | R2 = 00000001 | R3 = 00000101
# Novo PC:   5
# 
# Tempo = 195 | Clock = 1  Reset = 0
# PC =   5 | Instrucao = 00100100
# Decodificacao da instrucao: Opcode = 001 Funct = 0 R1 = 0 R2 = 2 Imm3 = 4 Target =  4
# Unidade de Controle: RegDst = 1 RegWrite = 1 MemRead = 0 MemWrite = 0 Branch = 0 Jump = 0 ULASrc = 0 Halt = 0 ULAOP = 00 
# Unidade de Controle ULA: ULAControl = 00
# ULA: d1 =00000000 d2 =00000001 | Resultado = 00000001 | COND = 0
# Memoria de Dados (Interna): Endereco =   1 | DadoEscrito = 00000000 | DadoLido = 11111111
# Saida do MUX RegDst: 00000001
# Valores da Memoria de Dados: Mem0 = 11111011( -5)| Mem1 = 11111000( -8) | Mem2 = 11111111( -1) | Mem3 = 00000001(  1) | Mem4 = 00001010( 10)
# Banco Registradores: R0 = 00000001 | R1 = 00000010 | R2 = 00000001 | R3 = 00000101
# Novo PC:   6
# 
# Tempo = 205 | Clock = 1  Reset = 0
# PC =   6 | Instrucao = 01000011
# Decodificacao da instrucao: Opcode = 010 Funct = 1 R1 = 0 R2 = 1 Imm3 = 3 Target =  3
# Unidade de Controle: RegDst = 0 RegWrite = 0 MemRead = 0 MemWrite = 1 Branch = 0 Jump = 0 ULASrc = 0 Halt = 0 ULAOP = 11 
# Unidade de Controle ULA: ULAControl = 00
# ULA: d1 =00000001 d2 =00000010 | Resultado = 00000011 | COND = 0
# Memoria de Dados (Interna): Endereco =   2 | DadoEscrito = 00000001 | DadoLido = 11111111
# Saida do MUX RegDst: 11111111
# Valores da Memoria de Dados: Mem0 = 11111011( -5)| Mem1 = 11111000( -8) | Mem2 = 00000001(  1) | Mem3 = 00000001(  1) | Mem4 = 00001010( 10)
# Banco Registradores: R0 = 00000001 | R1 = 00000010 | R2 = 00000001 | R3 = 00000101
# Novo PC:   7
# 
# Tempo = 215 | Clock = 1  Reset = 0
# PC =   7 | Instrucao = 00101100
# Decodificacao da instrucao: Opcode = 001 Funct = 0 R1 = 1 R2 = 2 Imm3 = 4 Target = 12
# Unidade de Controle: RegDst = 1 RegWrite = 1 MemRead = 0 MemWrite = 0 Branch = 0 Jump = 0 ULASrc = 0 Halt = 0 ULAOP = 00 
# Unidade de Controle ULA: ULAControl = 00
# ULA: d1 =00000010 d2 =00000001 | Resultado = 00000011 | COND = 0
# Memoria de Dados (Interna): Endereco =   1 | DadoEscrito = 00000010 | DadoLido = 11111111
# Saida do MUX RegDst: 00000011
# Valores da Memoria de Dados: Mem0 = 11111011( -5)| Mem1 = 11111000( -8) | Mem2 = 00000001(  1) | Mem3 = 00000001(  1) | Mem4 = 00001010( 10)
# Banco Registradores: R0 = 00000001 | R1 = 00000011 | R2 = 00000001 | R3 = 00000101
# Novo PC:   8
# 
# Tempo = 225 | Clock = 1  Reset = 0
# PC =   8 | Instrucao = 10101110
# Decodificacao da instrucao: Opcode = 101 Funct = 0 R1 = 1 R2 = 3 Imm3 = 6 Target = 14
# Unidade de Controle: RegDst = 0 RegWrite = 0 MemRead = 0 MemWrite = 0 Branch = 0 Jump = 0 ULASrc = 0 Halt = 0 ULAOP = 01 
# Unidade de Controle ULA: ULAControl = 10
# ULA: d1 =00000011 d2 =00000101 | Resultado = 00000000 | COND = 1
# Memoria de Dados (Interna): Endereco =   5 | DadoEscrito = 00000011 | DadoLido = 11111111
# Saida do MUX RegDst: 11111111
# Valores da Memoria de Dados: Mem0 = 11111011( -5)| Mem1 = 11111000( -8) | Mem2 = 00000001(  1) | Mem3 = 00000001(  1) | Mem4 = 00001010( 10)
# Banco Registradores: R0 = 00000001 | R1 = 00000011 | R2 = 00000001 | R3 = 00000101
# Novo PC:   9
# 
# Tempo = 235 | Clock = 1  Reset = 0
# PC =   9 | Instrucao = 11100011
# Decodificacao da instrucao: Opcode = 111 Funct = 1 R1 = 0 R2 = 1 Imm3 = 3 Target =  3
# Unidade de Controle: RegDst = 0 RegWrite = 0 MemRead = 0 MemWrite = 0 Branch = 1 Jump = 0 ULASrc = 0 Halt = 0 ULAOP = 11 
# Unidade de Controle ULA: ULAControl = 00
# ULA: d1 =00000001 d2 =00000011 | Resultado = 00000100 | COND = 0
# Memoria de Dados (Interna): Endereco =   3 | DadoEscrito = 00000001 | DadoLido = 11111111
# Saida do MUX RegDst: 11111111
